H;2.1
Li;1
Na;0.9
K;0.8
Rb;0.8
Cs;0.7
Fr;0.7
Be;1.5
Mg;1.2
Ca;1
Sr;1
Ba;0.9
Ra;0.9
Sc;1.3
Y;1.2
Ti;1.5
Zr;1.2
Hf;1.3
V;1.6
Nb;1.6
Ta;1.6
Cr;i.6
Mo;1.8
W;1.7
Mn;1.6
Tc;1.9
Re;1.9
Fe;1.8
Ru;2.2
Os;2.2
Co;1.9
Ag;1.9
Au;2.4
Zn;1.6
Cd;1.7
Hg;19
B;1.5
Al;1.5
Ga;1.6
In;1.7
Tl;1.8
C;2,5
Si;1.8
Ge;1.8
Sn;1.8
Pb;1.9
N;3
P;2.1
As;2
Sb;1.9
Bi;1.9
D;3.5
S;3.5
Se;2.4
Se;2.4
Te;2.1
Po;2.0
F;4
Cl;3
Br;2.8
I;2.5
At;2.2
